%YAML 1.1
%TAG !u! tag:unity3d.com,2011:
--- !u!114 &11400000
MonoBehaviour:
  m_ObjectHideFlags: 0
  m_CorrespondingSourceObject: {fileID: 0}
  m_PrefabInstance: {fileID: 0}
  m_PrefabAsset: {fileID: 0}
  m_GameObject: {fileID: 0}
  m_Enabled: 1
  m_EditorHideFlags: 0
  m_Script: {fileID: 11500000, guid: d2f92e47914a10d4ca13b79c66599972, type: 3}
  m_Name: ArmyTower3
  m_EditorClassIdentifier: 
  m_sprite: {fileID: 21300000, guid: 398ade852f7437d48a3b14bdb53eb24b, type: 3}
  m_towerData:
    m_towerTypeEnum: 3
    m_level: 1
    m_price: 25
    m_range: 6
    m_damage: 20
    m_shotRate: 0.5
    m_splashRange: 0
    m_bulletSpeed: 3
    m_bulletSprite: {fileID: 21300000, guid: fd38abec69c76244b8bf8bd57d82bb7e, type: 3}
    m_spriteScale: 1
