%YAML 1.1
%TAG !u! tag:unity3d.com,2011:
--- !u!114 &11400000
MonoBehaviour:
  m_ObjectHideFlags: 0
  m_CorrespondingSourceObject: {fileID: 0}
  m_PrefabInstance: {fileID: 0}
  m_PrefabAsset: {fileID: 0}
  m_GameObject: {fileID: 0}
  m_Enabled: 1
  m_EditorHideFlags: 0
  m_Script: {fileID: 11500000, guid: d2f92e47914a10d4ca13b79c66599972, type: 3}
  m_Name: SplashTower3
  m_EditorClassIdentifier: 
  m_sprite: {fileID: 21300000, guid: 623595b85e5f5ea43943087ca3d2ec87, type: 3}
  m_towerData:
    m_towerTypeEnum: 1
    m_level: 2
    m_price: 25
    m_range: 14
    m_damage: 120
    m_shotRate: 2
    m_splashRange: 4
    m_bulletSpeed: 1.5
    m_bulletSprite: {fileID: 21300000, guid: 8aceaca4bf1dc834e83bd9f6ebfac2c6, type: 3}
    m_spriteScale: 1
